AWSTATS DATA FILE 7.4 (build 20140726)
# If you remove this file, all statistics for date 201608 will be lost/reset.
# Last config file used to build this data file was /home/grintaaa/tmp/awstats/awstats.grintaaa.com.conf.

# Position (offset in bytes) in this file for beginning of each section for
# direct I/O access. If you made changes somewhere in this file, you should
# also remove completely the MAP section (AWStats will rewrite it at next
# update).
BEGIN_MAP 28
POS_GENERAL 2009                
POS_TIME 2691                
POS_VISITOR 13982               
POS_DAY 30334               
POS_DOMAIN 3589                
POS_LOGIN 4452                
POS_ROBOT 4607                
POS_WORMS 5169                
POS_EMAILSENDER 5300                
POS_EMAILRECEIVER 5443                
POS_SESSION 31239               
POS_SIDER 31452               
POS_FILETYPES 5578                
POS_DOWNLOADS 5959                
POS_OS 6189                
POS_BROWSER 6505                
POS_SCREENSIZE 7875                
POS_UNKNOWNREFERER 7949                
POS_UNKNOWNREFERERBROWSER 8853                
POS_ORIGIN 9439                
POS_SEREFERRALS 9585                
POS_PAGEREFS 9755                
POS_SEARCHWORDS 10472               
POS_KEYWORDS 10624               
POS_MISC 2354                
POS_ERRORS 10683               
POS_CLUSTER 4308                
POS_SIDER_404 10864               
END_MAP

# LastLine    = Date of last record processed - Last record line number in last log - Last record offset in last log - Last record signature value
# FirstTime   = Date of first visit for history file
# LastTime    = Date of last visit for history file
# LastUpdate  = Date of last update - Nb of parsed records - Nb of parsed old records - Nb of parsed new records - Nb of parsed corrupted - Nb of parsed dropped
# TotalVisits = Number of visits
# TotalUnique = Number of unique visitors
# MonthHostsKnown   = Number of hosts known
# MonthHostsUnKnown = Number of hosts unknown
BEGIN_GENERAL 8
LastLine 20160901001504 327 80892 9580212689174
FirstTime 20160801011706
LastTime 20160831180348
LastUpdate 20160901140114 327 0 326 0 0
TotalVisits 539                 
TotalUnique 395                 
MonthHostsKnown 0                   
MonthHostsUnknown 416                 
END_GENERAL

# Misc ID - Pages - Hits - Bandwidth
BEGIN_MISC 10
AddToFavourites 0 72 0
QuickTimeSupport 0 0 0
TotalMisc 0 0 0
WindowsMediaPlayerSupport 0 0 0
RealPlayerSupport 0 0 0
JavaEnabled 0 0 0
FlashSupport 0 0 0
JavascriptDisabled 0 0 0
DirectorSupport 0 0 0
PDFSupport 0 0 0
END_MISC

# Hour - Pages - Hits - Bandwidth - Not viewed Pages - Not viewed Hits - Not viewed Bandwidth
BEGIN_TIME 24
0 61 505 14767888 40 156 502059
1 90 715 17667958 28 130 301787
2 17 162 3294590 23 52 625344
3 29 218 7013099 37 160 572671
4 8 27 117827 18 64 271450
5 9 67 442136 26 57 1605492
6 26 144 3711188 28 139 263356
7 15 74 2847397 30 80 231441
8 5 433 5172106 91 202 810959
9 210 2075 59295690 216 358 1444455
10 176 956 28899630 51 112 485178
11 193 1330 34893224 50 158 3151741
12 159 639 10451380 41 123 415605
13 319 1663 54025741 89 202 2367454
14 224 940 49836098 58 184 1374282
15 131 542 41093993 41 74 124258
16 46 273 12511638 57 107 266223
17 71 410 10106872 17 88 4255449
18 47 180 851914 46 104 256373
19 120 556 20828400 49 97 4305018
20 40 313 7676091 66 233 769057
21 26 225 4838832 33 122 284055
22 12 69 301745 21 78 317702
23 74 401 10340286 40 180 654289
END_TIME

# Domain - Pages - Hits - Bandwidth
# The 25 first Pages must be first (order not required for others)
BEGIN_DOMAIN 46
tn 764 2933 154079063
us 658 4515 93313365
fr 306 2913 58370193
ma 137 1075 46743006
za 87 560 17716229
br 53 490 16582903
it 12 71 2820969
be 9 72 6912649
de 8 8 79305
cn 6 6 567150
md 6 6 27434
gb 5 66 285228
dz 5 64 2265561
cl 4 4 19925
ca 4 4 48392
ch 3 41 241355
pl 3 3 7603
kr 2 2 24196
in 2 2 24196
rs 2 2 24196
jp 2 2 15934
ar 2 2 14707
ve 2 2 5218
mx 2 2 5218
se 2 2 24196
bw 1 1 12098
vn 1 1 2609
th 1 1 2609
bd 1 1 12098
es 1 1 12098
ph 1 1 2609
il 1 1 12098
dk 1 1 12098
pe 1 1 2609
bf 1 1 2609
at 1 1 12098
tt 1 1 12098
lr 1 49 579897
uy 1 1 2609
my 1 1 12098
ro 1 1 12098
pk 1 1 12098
sa 1 1 12098
gr 1 1 12098
ru 2 2 14707
id 1 1 12098
END_DOMAIN

# Cluster ID - Pages - Hits - Bandwidth
BEGIN_CLUSTER 0
END_CLUSTER

# Login - Pages - Hits - Bandwidth - Last visit
# The 10 first Pages must be first (order not required for others)
BEGIN_LOGIN 0
END_LOGIN

# Robot ID - Hits - Bandwidth - Last visit - Hits on robots.txt
# The 25 first Hits must be first (order not required for others)
BEGIN_ROBOT 11
googlebot 836 2422102 20160831231347 104
bot[\s_+:,\.\;\/\\-] 623 12165844 20160831182913 117
php 171 1177335 20160831191649 0
robot 81 739750 20160830172636 12
google[_+\s]web[_+\s]preview 64 2265561 20160808111359 0
spider 47 142112 20160831203238 3
unknown 27 1875 20160831151633 27
slurp 11 11966 20160830111446 5
no_user_agent 10 64046 20160825124710 0
ia_archiver 2 12038 20160817002947 1
netcraft 1 12098 20160810084042 0
END_ROBOT

# Worm ID - Hits - Bandwidth - Last visit
# The 5 first Hits must be first (order not required for others)
BEGIN_WORMS 0
END_WORMS

# EMail - Hits - Bandwidth - Last visit
# The 20 first Hits must be first (order not required for others)
BEGIN_EMAILSENDER 0
END_EMAILSENDER

# EMail - Hits - Bandwidth - Last visit
# The 20 first hits must be first (order not required for others)
BEGIN_EMAILRECEIVER 0
END_EMAILRECEIVER

# Files type - Hits - Bandwidth - Bandwidth without compression - Bandwidth after compression
BEGIN_FILETYPES 16
eot 4 1043623 0 0
gif 118 840973 0 0
woff2 76 3027368 0 0
js 2643 33517103 0 0
css 4476 8772400 0 0
jpeg 30 6239627 0 0
tmp 6 384 0 0
php 9 9559 0 0
jpg 780 140946179 0 0
png 2754 56727739 0 0
Unknown 429 5628491 0 0
html 606 2433886 0 0
woff 389 45508808 0 0
ttf 62 23301612 0 0
json 527 72987547 0 0
txt 8 424 0 0
END_FILETYPES

# Downloads - Hits - Bandwidth
BEGIN_DOWNLOADS 4
/154B6071D87EEB498C46DFB3C34EF874.txt 3 0 159
/D0D168CD3CFA3D48E438A2694771EECE.txt 3 0 159
/16FB69E301BB66906311D02FA212D681.txt 1 0 53
/E6B21D9CCF91F3BD8DE7122554F34F2C.txt 1 0 53
END_DOWNLOADS

# OS ID - Hits
BEGIN_OS ID - Hits - Pages 18
blackberry 2 2
winphone 12 12
ios_ipad 64 5
win7 2999 358
macosx8 1 1
winxp 752 72
java 1 1
ios_iphone 2180 248
macosx9 4 4
linuxubuntu 1 0
win8.1 6 6
linuxandroid 2558 434
win2003 11 3
Unknown 273 85
winnt 516 70
linux 3535 805
win8 1 1
win2000 1 1
END_OS

# Browser ID - Hits - Pages
BEGIN_BROWSER 64
chrome36.0.1985.143 540 44
chrome47.0.2526.100 20 1
chrome37.0.2049.0 1 1
chrome51.0.2704.79 1 0
firefox47.0 188 33
chrome49.0.2623.75 9 9
android 22 2
chrome33.0.0.0 101 6
chrome51.0.2704.63 660 0
safari7.1 1 1
firefox14.0.1 6 6
chrome27.0.1453 64 5
chrome50.4.2661.78 72 6
blackberry 2 2
safari9.0 147 16
chrome52.0.2743.98 745 145
msie8.0 1 1
chrome52.0.2743.91 60 3
chrome39.0.2171.95 2 2
chrome49.0.2623.112 673 52
Unknown 264 77
chrome45.0.2454.101 6 6
netscape5.0 128 10
msie7.0 11 3
chrome47.0.2526.111 16 16
msie11.0 70 8
firefox24.0 2 2
mozilla 8 8
iphone 1897 221
chrome46.0.2490.76 221 22
firefox45.0 1 1
chrome50.0.2661.102 3385 773
msie10.0 14 14
firefox2.0.0.8 1 1
chrome35.0.1916.153 3 3
chrome39.0.0.0 20 1
chrome23.0.1271.64 1 1
chrome51.0.2704.103 210 33
chrome48.0.2564.106 20 1
chrome15.0.861.0 1 1
chrome48.0.2564.23 1 1
chrome37.0.0.0 20 1
safari 200 16
chrome49.0.2623.87 1 1
chrome50.0.2661.86 21 2
chrome40.0.2214.114 40 2
chrome44.0.2403.133 97 19
firefox40.1 28 28
safari7.0.3 1 1
chrome50.0.2661.94 1 1
chrome23.0.1271.95 2 2
firefox28.0 3 3
chrome32.0.1700.107 16 16
chrome51.0.2704.81 654 49
firefox34.0 3 3
chrome52.0.2743.116 1705 234
firefox5.0 2 2
chrome38.0.2125.102 74 15
chrome37.0.2062.120 4 4
firefox29.0 64 5
msie6.0 5 5
w3c_validator 1 1
chrome30.0.0.0 379 159
firefox36.0 1 1
END_BROWSER

# Screen size - Hits
BEGIN_SCREENSIZE 0
END_SCREENSIZE

# Unknown referer OS - Last visit date
BEGIN_UNKNOWNREFERER 16
MagpieRSS/0.72_(_http://magpierss.sf.net) 20160830113823
Snapchat/9.37.5.0_(SM-G920F;_Android_6.0.1#G920FXXS4DPG3#23;_gzip) 20160825014249
ltx71_-_(http://ltx71.com/) 20160803030020
Xenu_Link_Sleuth/1.3.8 20160806163624
python-requests/2.10.0 20160825194441
panscient.com 20160816235516
W3C_Validator/1.3_libwww-perl/6.15 20160824093859
Whibse 20160821203146
Mozilla/5.0_(compatible;_Google-Site-Verification/1.0) 20160819063413
COMODO_DCV 20160817001106
internetVista_monitor_(Mozilla_compatible) 20160824093901
Python-urllib/2.7 20160805073511
Easy-Thumb_(https://www.easy-thumb.net/) 20160824113249
AppEngine-Google;_(_http://code.google.com/appengine;_appid:_s~snapchat-proxy) 20160830140740
Cpanel-HTTP-Client/1.0 20160817001002
Mozilla/5.0_(compatible;_Qwantify/2.2w;__https://www.qwant.com/)/* 20160819174024
END_UNKNOWNREFERER

# Unknown referer Browser - Last visit date
BEGIN_UNKNOWNREFERERBROWSER 12
panscient.com 20160816235516
AppEngine-Google;_(_http://code.google.com/appengine;_appid:_s~snapchat-proxy) 20160830140740
Cpanel-HTTP-Client/1.0 20160817001002
Whibse 20160821203146
COMODO_DCV 20160817001106
Java/1.8.0_91 20160804231720
ltx71_-_(http://ltx71.com/) 20160803030020
Xenu_Link_Sleuth/1.3.8 20160806163624
python-requests/2.10.0 20160825194441
Easy-Thumb_(https://www.easy-thumb.net/) 20160824113249
Python-urllib/2.7 20160805073511
MagpieRSS/0.72_(_http://magpierss.sf.net) 20160830113823
END_UNKNOWNREFERERBROWSER

# Origin - Pages - Hits 
BEGIN_ORIGIN 6
From0 622 800
From1 0 0
From2 2 2
From3 463 1887
From4 1021 10228
From5 0 0
END_ORIGIN

# Search engine referers ID - Pages - Hits
BEGIN_SEREFERRALS 2
duckduckgo 1 1
google 1 1
END_SEREFERRALS

# External page referers - Pages - Hits
# The 25 first Pages must be first (order not required for others)
BEGIN_PAGEREFS 15
http://192.168.1.200/Webcarre/grintaa/index.html 178 185
http://m.facebook.com 137 1535
http://192.168.1.200/Webcarre/grintaa/ 52 66
http://seo-2-0.com/try.php 47 47
http://192.168.1.100/Webcarre/grintaa/ 19 24
http://buttons-for-website.com 9 9
http://localhost:8000/index.html 7 7
https://www.facebook.com 4 4
http://pizza-tycoon.com 3 3
http://lm.facebook.com/lsr.php 2 2
http://www.toplien.fr/membres/proposer_site.html 1 1
http://annuaire.internet-formation.fr/valid-site.php 1 1
https://m.facebook.com 1 1
http://m.facebook.com 1 1
http://burger-imperia.com 1 1
END_PAGEREFS

# Search keyphrases - Number of search
# The 10 first number of search must be first (order not required for others)
BEGIN_SEARCHWORDS 0
END_SEARCHWORDS

# Search keywords - Number of search
# The 25 first number of search must be first (order not required for others)
BEGIN_KEYWORDS 0
END_KEYWORDS

# Errors - Hits - Bandwidth
BEGIN_ERRORS 8
204 2 0
302 124 63752
401 10 0
405 12 703296
301 694 174169
206 45 530424
500 20 2076760
404 408 3014548
END_ERRORS

# URL with 404 errors - Hits - Last URL referrer
BEGIN_SIDER_404 55
/typo3/ 1 -
/test/custom-error-page-test 1 http://grintaaa.com/test/custom-error-page-test
/6/dropboxLanre/dropbox/proposal/index.php/ 12 -
/.git/ 1 http://www.grintaaa.com/.git/
/images/slid-home/3.png 2 http://www.grintaaa.com/annuaires.php
/images/slid-home/2.png 2 http://www.grintaaa.com/annuaires.php
/api/events/news.json 12 -
/administrator/ 5 -
/images/logo.png 3 http://www.grintaaa.com/annuaires.php
/peykuoan.html 1 -
/favoris/75/delete 2 http://www.grintaaa.com/event/tir/show
/bundles/comparatorbase/js/lightbox.min.map 16 -
/406.shtml 1 -
/images/slid-home/62.png 2 http://www.grintaaa.com/annuaires.php
/images/slid-home/5.png 2 http://www.grintaaa.com/annuaires.php
/app_dev.php/api/events/54/dels/participes.json 1 -
/api/events/nttews.json 1 -
/bundles/comparatorbase/css/images/ui-bg_glass_75_e6e6e6_1x400.png 5 http://www.grintaaa.com/bundles/comparatorbase/css/jquery.ui.theme.css
/manager/ 1 -
/nite/dropboxLanre/dropbox/proposal/index.php 28 -
/app_dev.php/api/ 1 -
/register/fr/check-email 1 -
/bundles/comparatorbase/css/images/ui-bg_highlight-soft_75_cccccc_1x100.png 5 http://www.grintaaa.com/bundles/comparatorbase/css/jquery.ui.theme.css
/annuaires 2 -
/images/slid-home/1.png 2 http://www.grintaaa.com/annuaires.php
/ToorSec.php 1 -
/api/users/check.json 5 -
/api/user/check.json 1 -
/api/user 1 -
/bundles/sonatademo/css/demo.css 9 http://www.grintaaa.com/admin/dashboard
/6/dropboxLanre/dropbox/proposal/index.php 35 -
/admin/index.php 1 -
/sitemap_index.xml 4 http://grintaaa.com/sitemap_index.xml
/nu/dropboxLanre/dropbox/proposal/index.php 10 http://www.grintaaa.com/nu/dropboxLanre/dropbox/proposal/index.php
/admin.php 3 -
/bundles/comparatorbase/css/images/ui-bg_glass_75_dadada_1x400.png 11 http://www.grintaaa.com/bundles/comparatorbase/css/jquery.ui.theme.css
/images/slid-home/4.png 2 http://www.grintaaa.com/annuaires.php
/news 2 http://grintaaa.com/news
/.well-known/apple-app-site-association 9 -
/administrator/index.php 3 -
/wp-login.php 40 -
/bundles/comparatorbase/css/images/ui-bg_flat_75_ffffff_40x100.png 122 http://www.grintaaa.com/bundles/comparatorbase/css/jquery.ui.theme.css
/checksite/custom-error-page 2 http://grintaaa.com/checksite/custom-error-page
/app_dev.php/api/events/news.json 5 http://192.168.1.200/Webcarre/grintaa/index.html
/images/slid-home/6.png 2 http://www.grintaaa.com/annuaires.php
/bundles/comparatorbase/css/images/ui-bg_glass_65_ffffff_1x400.png 2 http://www.grintaaa.com/bundles/comparatorbase/css/jquery.ui.theme.css
/apple-app-site-association 9 -
/api 1 -
/ascreen.jpg 1 -
/index.php/admin 1 -
/api/events/tir/show.json 1 -
/.well-known/assetlinks.json 8 -
/user/ 1 -
/1337.php 1 -
/bundles/comparatorbase/css/images/ui-bg_glass_55_fbf9ee_1x400.png 5 http://www.grintaaa.com/bundles/comparatorbase/css/jquery.ui.theme.css
END_SIDER_404

# Host - Pages - Hits - Bandwidth - Last visit date - [Start date of last visit] - [Last page of last visit]
# [Start date of last visit] and [Last page of last visit] are saved only if session is not finished
# The 25 first Hits must be first (order not required for others)
BEGIN_VISITOR 416
41.224.180.20 153 321 19660844 20160831151711
66.249.93.20 112 561 6941451 20160831150236
66.249.93.17 108 569 7479457 20160831165006
66.249.93.14 85 512 6490200 20160831145213
196.66.224.41 82 496 15465396 20160808180959
41.224.66.59 76 87 26396107 20160830154245
41.224.157.177 52 52 1698208 20160830123412
197.27.79.247 52 176 7990507 20160824144015
197.27.65.142 47 248 4025699 20160819133007
197.27.27.187 33 222 20709815 20160823151249
66.249.81.160 32 142 3189731 20160831135445
66.249.93.104 32 238 6448996 20160822151505
78.223.186.29 32 187 6856750 20160814001104
66.249.81.152 31 154 3839471 20160831135533
41.226.202.247 30 30 890 20160829201015
66.249.93.108 28 232 6256584 20160822150908
105.159.3.211 28 28 73052 20160825015844
197.0.52.227 27 136 7848833 20160815095837
66.249.93.112 27 241 5830667 20160822150841
105.154.255.131 23 260 10860584 20160830153023
41.230.240.230 22 22 49694 20160825140005
66.249.81.156 22 133 3854046 20160831134934
41.224.152.168 20 20 2913 20160831121031
41.224.174.172 19 33 2180869 20160822150907
105.153.255.122 18 269 5292453 20160825014058
73.196.35.108 1 1 12098 20160830190858
52.43.64.109 1 1 2609 20160829212840
66.249.81.246 2 23 1211530 20160816141601
194.187.170.109 1 1 2385 20160819174024
109.64.177.159 1 1 12098 20160830061458
2.4.13.243 2 2 5218 20160831135413
176.140.73.241 1 19 138910 20160810231741
197.27.87.94 14 125 2699346 20160805110422
52.3.127.144 1 1 2621 20160803030020
187.3.195.199 1 1 2609 20160813003715
171.96.171.179 1 1 2609 20160805123739
193.192.233.139 1 20 90075 20160809184116
79.101.139.91 1 1 12098 20160830123559
64.74.215.164 0 24 339428 
92.91.22.242 1 1 2609 20160828221617
179.232.83.90 1 1 2609 20160806034308
80.215.178.154 1 1 2609 20160823224116
78.226.218.126 1 20 90075 20160811095438
176.189.182.244 1 1 2609 20160828094300
80.215.167.252 6 65 2253442 20160829153702
77.84.254.211 1 20 139182 20160809024509
83.157.137.249 1 20 90075 20160810025059
107.178.195.203 2 2 5218 20160808174616
197.27.111.222 7 73 6397688 20160810135634
41.230.229.223 1 1 2609 20160802090544
41.106.80.101 3 36 819460 20160804112341
193.57.120.87 1 1 2609 20160806113157
66.249.83.250 1 1 2609 20160817120449
54.165.30.184 1 1 12098 20160801134024
66.249.88.35 1 1 2609 20160817114959
180.153.214.200 1 1 29192 20160818071441
52.10.138.63 1 1 12098 20160816160453
92.90.16.42 1 1 2609 20160816231948
107.178.194.89 1 1 2609 20160825020301
176.123.2.42 2 2 9171 20160828133423
87.19.163.120 1 1 2609 20160804162347
197.0.78.190 12 121 3611551 20160823094247
105.154.249.140 13 16 3741098 20160830235332
200.82.36.2 1 1 12098 20160830193437
80.214.122.176 1 1 2609 20160804230404
178.254.148.42 1 1 12098 20160830110504
52.5.133.46 6 65 2268170 20160824093903
185.129.62.63 1 1 2609 20160805042539
178.238.225.65 7 7 76696 20160820062756
64.74.215.142 0 36 509142 
180.153.211.172 1 1 2609 20160818071435
197.27.113.192 5 64 2250833 20160812090855
197.2.114.53 8 8 14521 20160816192624
82.240.124.243 1 20 90075 20160802232534
189.70.121.183 1 1 2609 20160802185515
176.147.73.151 1 20 90075 20160811124314
64.74.215.150 0 36 509142 
151.74.40.147 1 1 2609 20160801151320
176.189.22.217 1 20 90075 20160803232953
90.2.176.114 1 1 2609 20160830104147
107.178.194.93 3 3 7827 20160825015713
78.118.232.22 8 94 3810120 20160827193904
200.28.108.254 1 1 2609 20160802203242
81.249.152.41 1 1 2609 20160819115116
177.23.192.179 1 1 2609 20160801043922
64.74.215.98 0 60 848570 
80.214.74.169 1 1 2609 20160812163524
92.143.229.159 1 1 2609 20160827025158
164.132.51.91 1 1 12098 20160805073511
107.178.195.195 3 3 7827 20160808174617
88.170.152.228 1 20 90075 20160803221853
165.51.130.210 1 1 2609 20160801030847
66.249.93.246 3 10 72884 20160831133759
168.167.94.83 1 1 12098 20160829145608
80.215.12.139 1 1 2609 20160801100241
196.41.254.242 2 28 1446101 20160804112341
86.67.66.108 1 1 2609 20160830211554
82.229.236.184 5 64 2265561 20160809004224
107.178.194.91 4 4 10436 20160825020301
83.200.197.126 1 20 90075 20160813002229
92.154.19.22 5 64 2250833 20160810114833
37.35.105.42 1 1 12098 20160824093900
64.74.215.176 0 24 339428 
173.254.247.226 1 1 11971 20160804154722
190.213.122.110 1 1 12098 20160828024117
90.1.24.26 1 1 12098 20160828055348
77.154.202.83 1 1 2609 20160803012052
105.158.247.248 7 21 479833 20160820234655
149.202.90.201 2 5 287 20160817001001
78.231.159.45 1 20 90075 20160810112857
93.31.241.60 1 20 90075 20160814194311
64.74.215.59 0 24 339428 
90.27.60.244 1 20 90075 20160817001322
80.214.76.249 14 80 6400626 20160819181438
88.181.0.151 1 20 90075 20160809134400
78.225.79.78 1 20 90075 20160804165845
64.74.215.1 0 156 2206282 
177.68.208.151 1 1 2609 20160802045102
41.227.185.70 5 64 2250833 20160818071134
200.237.129.78 1 1 2609 20160813232202
87.100.36.82 2 40 278364 20160806130633
79.84.84.179 1 1 2609 20160831180348
80.215.202.190 5 17 2609 20160823194605
41.224.65.9 5 79 2277203 20160802090848
41.224.166.60 10 10 456 20160826095744
80.12.59.49 5 64 2265561 20160809205951
105.158.188.184 6 72 6406368 20160824152706
82.240.71.134 1 20 90075 20160808215453
66.249.93.244 1 4 19248 20160823132332
87.100.42.65 1 1 2609 20160823142044
82.243.13.249 1 20 90075 20160810123142
54.241.127.244 1 1 2609 20160818172332
41.224.143.8 18 111 3328406 20160824094257
107.178.194.2 5 5 13045 20160810135003
41.140.86.15 1 1 2609 20160829062925
54.90.41.238 1 1 2609 20160824000103
38.100.21.78 3 11 129534 20160804124358
200.94.244.109 1 1 2609 20160801225555
192.154.104.178 1 1 2609 20160829205415
27.74.137.94 1 1 2609 20160814104516
90.54.185.30 1 1 2609 20160802131645
103.203.66.21 1 1 12098 20160831161855
52.39.152.121 1 1 12098 20160812131654
189.127.53.22 1 1 2609 20160804184449
92.90.16.86 1 40 252271 20160830050802
105.66.128.233 8 74 6408686 20160802003148
52.39.247.221 1 1 12098 20160823195557
90.164.107.113 1 1 12098 20160829202533
37.187.158.39 1 1 2609 20160824113239
81.244.238.53 7 69 6891057 20160824162503
93.24.100.102 15 145 4714556 20160812035625
52.40.3.71 1 1 12098 20160819150600
54.152.77.211 5 64 2265561 20160824093903
80.215.105.112 1 1 2609 20160830213424
197.0.125.201 11 11 3336836 20160829194514
94.224.197.193 1 1 2609 20160811004536
191.180.17.231 1 1 2609 20160814153031
66.249.93.100 7 73 2875629 20160815132408
64.74.215.158 0 12 169714 
179.222.134.102 1 1 2609 20160806152051
90.110.126.6 1 32 135344 20160813001211
185.130.5.188 1 1 12098 20160827160053
92.90.21.32 1 1 2609 20160811160358
37.161.38.250 1 1 2609 20160805051150
66.249.92.125 1 1 53 20160819063413
190.142.246.217 1 1 2609 20160809185512
158.69.229.134 3 3 36294 20160824061612
80.183.124.241 1 1 2609 20160811003342
107.178.194.31 4 4 10436 20160810135652
80.215.41.126 7 82 2615878 20160808173958
105.155.180.34 0 1 6885 
177.154.252.156 5 64 2793217 20160815011052
200.181.181.141 1 1 2609 20160803144208
41.224.122.17 1 1 6047 20160819201933
66.249.93.248 3 8 63530 20160825191214
78.113.82.90 1 1 2609 20160826121837
66.249.81.249 3 27 901407 20160816141132
192.245.60.241 1 1 12098 20160830173109
87.231.74.92 1 20 90075 20160804213805
90.30.155.94 1 20 139182 20160816171838
78.203.70.88 1 20 90075 20160809183608
187.41.74.109 5 64 2793217 20160802151434
189.24.236.208 1 1 2609 20160816143255
177.83.111.116 1 1 2609 20160803024254
77.154.224.206 1 1 2609 20160811234758
187.121.181.223 4 62 2669470 20160804203250
189.101.145.17 1 1 2609 20160810130537
90.57.212.185 1 20 90075 20160812000154
175.140.121.15 1 1 12098 20160827233614
41.230.121.64 4 4 4 20160825191637
41.224.100.231 1 25 179597 20160826130236
109.13.120.199 1 1 2609 20160826202012
5.135.138.183 1 1 12098 20160824093900
77.194.104.3 1 1 2609 20160819211845
64.74.215.58 0 48 678856 
186.227.221.117 1 1 2609 20160801043001
83.152.26.19 1 20 139182 20160811000539
41.224.185.88 6 6 156 20160830125118
41.230.230.109 5 64 2250833 20160809093620
91.121.44.159 1 1 2609 20160826031822
84.254.48.163 1 1 12098 20160830132106
94.23.150.95 1 1 2609 20160808102658
64.74.215.139 0 12 169714 
92.90.21.8 1 1 2609 20160813002803
197.27.87.180 18 102 2292251 20160812141250
94.23.147.30 1 1 2609 20160807041031
179.7.133.61 1 1 2609 20160802231418
64.74.215.138 0 36 509142 
176.189.179.147 1 20 90075 20160803063857
79.36.11.96 1 1 2609 20160811212338
180.248.232.63 1 1 12098 20160808061409
31.32.21.201 1 1 2609 20160822191508
107.178.195.163 1 1 2609 20160807110819
201.48.227.210 1 1 2609 20160801143301
188.63.242.241 1 20 139182 20160805003844
78.250.242.158 1 20 90075 20160814135204
80.215.46.134 1 1 2609 20160816225433
179.176.107.91 1 1 2609 20160806192626
180.163.2.88 1 1 335028 20160818071440
107.178.194.96 2 2 5218 20160830140740
88.125.19.33 1 20 90075 20160804233818
125.209.88.218 1 1 12098 20160831085142
69.58.178.56 8 8 81178 20160820114417
88.163.188.114 2 60 2021712 20160810111837
109.17.197.102 1 20 139182 20160803082745
75.87.210.56 1 1 12098 20160831173218
196.224.71.177 1 49 579897 20160831163905
66.249.93.92 4 74 2136874 20160815125813
154.66.171.63 1 1 2609 20160808092310
37.161.210.181 1 1 2609 20160801210349
37.175.213.50 9 26 391339 20160802163607
103.231.162.34 1 1 12098 20160831074945
64.74.215.162 0 24 339428 
121.103.155.48 1 1 12098 20160828112928
169.50.98.9 1 1 2609 20160825194441
213.251.182.114 2 2 5218 20160830113823
107.178.195.159 1 1 2609 20160807110818
109.15.144.67 1 1 2609 20160819235157
189.13.223.38 1 56 1682477 20160811193957
93.23.31.199 1 1 2609 20160820181458
177.22.91.216 1 1 2609 20160802120613
64.74.215.166 0 12 169714 
194.187.170.111 1 1 2609 20160819041658
52.24.82.197 1 1 12098 20160826194358
90.25.160.185 1 20 139182 20160803095249
191.250.205.113 1 1 2609 20160808022747
78.208.88.201 5 53 462172 20160815002807
172.110.22.91 1 1 12098 20160804231720
188.188.60.117 0 1 6885 
78.250.51.6 1 20 139182 20160801053005
54.205.187.53 1 1 12098 20160808032517
66.249.93.23 13 123 2478498 20160824144013
66.102.9.43 1 1 2609 20160822122130
86.76.206.99 1 20 90075 20160806093436
196.206.88.88 5 64 2250833 20160830174921
101.226.33.225 1 1 2609 20160818071445
82.230.255.1 1 20 90075 20160803235514
92.158.13.199 1 20 90075 20160813080513
107.178.195.167 2 2 5218 20160808014326
5.196.64.20 4 7 415 20160810215847
80.215.11.88 15 74 2287094 20160814232911
88.139.248.150 2 21 92684 20160826114010
107.178.194.4 5 5 13045 20160810135653
176.123.2.45 1 1 2385 20160825203717
66.249.83.196 1 1 2609 20160808111525
90.66.158.176 1 1 2609 20160820013130
190.38.32.198 1 1 2609 20160804225000
91.160.16.237 1 20 90075 20160806060959
89.81.191.99 1 1 0 20160806163624
82.240.164.37 1 20 90075 20160808002242
176.144.11.225 1 1 2609 20160821232158
93.37.139.229 5 64 2793217 20160802133741
80.215.204.44 1 1 2609 20160803150459
78.243.10.138 1 20 90075 20160801195405
105.190.242.144 5 64 2265561 20160819030237
92.90.16.28 1 1 2609 20160801225324
109.23.166.79 1 20 90075 20160802204528
72.76.221.220 12 14 31061 20160816235516
189.79.126.227 1 1 2609 20160814190009
177.136.220.241 1 1 2609 20160810191728
85.159.94.18 5 64 285122 20160807112430
80.12.59.103 1 1 2609 20160801221301
41.231.31.80 9 10 91984 20160830121925
77.128.249.163 1 20 90075 20160808230403
41.224.111.147 7 11 557729 20160829095121
213.182.240.118 1 1 12098 20160831130339
86.252.72.194 1 1 2609 20160826125114
92.90.16.49 1 1 2609 20160819145925
31.33.115.109 1 1 2609 20160831013854
85.171.59.34 1 20 90075 20160801011706
189.47.90.155 1 1 2609 20160810200421
105.157.72.215 0 1 6885 
64.74.215.178 0 72 1018284 
177.104.69.142 1 1 2609 20160803155401
89.80.213.59 2 40 180150 20160804195824
109.220.84.32 1 1 2609 20160828031110
92.167.62.14 1 1 2609 20160822230517
41.230.231.198 5 64 2250833 20160810090130
82.243.24.215 1 20 90075 20160812230040
90.37.219.17 1 1 2609 20160822123629
54.85.207.197 1 1 12098 20160809043118
197.27.68.78 5 64 2250833 20160815094305
41.231.62.210 12 78 6414866 20160801142258
150.70.188.170 1 1 3836 20160820234626
179.24.66.26 1 1 2609 20160810155926
41.230.84.131 3 3 7131 20160817181916
191.7.66.96 1 49 757313 20160814024245
41.230.219.158 4 4 4 20160826145615
82.246.64.249 1 20 90075 20160814004729
93.165.20.67 1 1 12098 20160830120223
66.102.8.193 0 25 515633 
77.84.164.18 1 1 2609 20160821184420
101.226.68.213 1 1 140932 20160818071440
78.238.145.155 1 20 90075 20160801204130
220.90.150.103 1 1 12098 20160830142442
41.224.142.3 4 30 203724 20160826132256
196.184.45.252 5 64 2250833 20160801101453
92.93.177.195 1 1 2609 20160826032918
78.227.171.108 2 40 229257 20160809204852
54.82.172.8 5 64 2793217 20160824135841
2.8.141.99 1 20 90075 20160801205121
66.249.93.101 1 4 27586 20160817103755
41.224.152.242 5 80 2285491 20160803091734
80.215.97.97 1 1 2609 20160805132835
190.5.48.84 1 1 2609 20160806233118
66.102.8.141 1 1 16 20160830160814
194.187.170.115 1 1 2609 20160818062355
105.131.157.93 15 193 6803568 20160830151006
82.235.128.35 1 20 90075 20160812084051
201.141.32.138 1 1 2609 20160808035654
41.230.41.47 5 64 2250833 20160810111748
37.162.152.198 1 1 2609 20160808012218
176.185.21.148 5 64 2250833 20160810212037
175.124.84.147 1 1 12098 20160829180238
52.7.32.143 5 64 2265561 20160824093903
88.171.23.40 1 20 90075 20160804045242
178.17.170.124 1 1 12098 20160822113510
176.123.6.7 2 2 3780 20160828222959
91.121.88.41 1 1 12098 20160826162735
66.249.88.25 1 1 2609 20160829100019
78.193.200.161 1 20 90075 20160806175703
77.148.153.11 1 20 90075 20160801224122
89.122.31.197 1 1 12098 20160829143040
109.16.110.168 1 1 2609 20160830131817
192.99.63.84 1 1 12098 20160824093901
79.56.229.38 1 1 2609 20160805135811
148.204.210.179 1 1 2609 20160816163815
137.59.180.154 1 1 12098 20160830195812
80.215.172.248 1 1 2609 20160810092844
78.221.14.165 1 20 90075 20160805010656
66.102.8.247 1 19 688092 20160824093902
165.50.54.228 2 5 3692987 20160831152731
176.152.76.169 1 20 139182 20160801190831
52.35.98.169 1 1 2609 20160821203146
109.69.218.20 1 1 12098 20160824093900
197.27.90.124 3 3 7241 20160817112642
93.22.123.219 1 20 90075 20160818102320
179.107.105.90 5 64 2793217 20160810235827
37.162.233.234 1 1 2609 20160805054038
190.211.2.248 1 1 2609 20160813035923
66.249.93.96 10 88 2830307 20160815132407
179.104.128.144 1 1 2609 20160803183937
80.215.87.105 9 70 3310604 20160801060841
197.27.26.77 5 64 2250833 20160829092919
77.153.23.41 1 20 90075 20160806175310
79.47.50.245 1 1 2609 20160806095354
179.36.137.31 1 1 2609 20160815053111
78.253.179.67 1 20 139182 20160815000557
52.41.172.235 1 1 12098 20160802132958
82.125.205.240 1 20 90075 20160802110003
189.18.70.2 1 1 2609 20160808020857
54.172.198.68 2 2 24196 20160810064122
78.193.92.217 5 65 2272446 20160807174829
52.90.19.229 1 1 12098 20160802160555
88.175.171.72 1 20 90075 20160801232444
81.56.119.5 1 20 90075 20160801213453
64.74.215.146 0 48 678856 
85.194.92.118 1 1 12098 20160830141711
101.226.125.16 1 1 56780 20160818071444
93.121.185.8 1 1 2609 20160811121946
191.253.8.240 1 1 2609 20160812151135
177.128.193.6 1 41 232941 20160810015857
41.140.15.144 1 1 12098 20160831144956
88.175.164.158 1 20 90075 20160802164236
81.233.85.63 1 1 12098 20160828141515
179.110.84.89 5 64 2793217 20160801190123
104.154.250.100 1 1 12098 20160821164502
80.215.164.0 1 1 2609 20160818180648
54.170.225.89 15 192 8379651 20160824113249
43.250.166.108 1 1 12098 20160830222341
82.239.241.56 1 20 90075 20160802224126
89.163.237.45 1 1 2609 20160806140651
87.231.222.75 1 20 139182 20160805185321
105.158.67.15 1 1 12098 20160831021541
88.171.188.149 5 64 2265561 20160808024210
86.249.91.119 1 20 139182 20160801101806
197.27.113.242 5 64 2250833 20160804092814
41.230.235.123 2 2 2626 20160816145534
77.144.185.89 1 1 2609 20160828110547
112.198.103.127 1 1 2609 20160805072601
64.74.215.154 0 36 509142 
66.102.8.251 4 20 1061836 20160824093902
41.226.66.106 13 13 3271329 20160830192025
88.162.125.184 1 20 90075 20160809234521
92.146.233.27 1 20 90075 20160801233008
193.251.21.113 1 1 2609 20160828162713
77.153.32.188 1 20 90075 20160810193814
77.201.79.106 1 20 90075 20160812211010
77.154.225.39 8 67 2276410 20160809134101
105.67.1.14 6 9 2120395 20160830161627
41.224.69.27 12 157 4823628 20160801112433
107.178.195.199 3 3 7827 20160808174616
90.61.120.134 1 20 90075 20160808124620
213.251.182.102 1 1 2609 20160824120808
91.199.212.132 0 2 106 
66.249.81.243 3 26 220653 20160830111817
END_VISITOR

# Date - Pages - Hits - Bandwidth - Visits
BEGIN_DAY 31
20160801 65 688 21108910 28
20160802 47 460 15585999 20
20160803 18 231 3281858 14
20160804 28 331 8139706 16
20160805 25 217 3437574 13
20160806 15 153 1008453 14
20160807 54 434 11568318 14
20160808 86 486 12314878 27
20160809 33 403 9811305 13
20160810 62 715 24317464 26
20160811 10 146 2356891 10
20160812 45 418 9974684 10
20160813 12 152 2816751 8
20160814 49 333 8321975 9
20160815 56 492 18343158 12
20160816 58 193 4855067 20
20160817 40 301 4016658 18
20160818 16 118 3267411 12
20160819 90 653 18523174 22
20160820 25 63 986189 6
20160821 5 29 361962 5
20160822 74 413 12591741 19
20160823 109 1087 31366411 17
20160824 176 1319 49974483 35
20160825 113 591 12754334 22
20160826 52 295 3233749 18
20160827 12 122 4178962 5
20160828 17 100 2658087 14
20160829 81 291 11660006 20
20160830 315 921 59220452 47
20160831 320 762 28949113 25
END_DAY

# Session range - Number of visits
BEGIN_SESSION 7
15mn-30mn 19
0s-30s 407
1h+ 26
5mn-15mn 27
2mn-5mn 15
30s-2mn 28
30mn-1h 17
END_SESSION

# URL - Pages - Bandwidth - Entry - Exit
# The 25 first Pages must be first (order not required for others)
BEGIN_SIDER 172
/ 569 2328545 401 316
/app_dev.php/api/users/check.json 211 3255 16 18
/bundles/comparatorbase/fonts/Lato-Regular.woff 132 29147436 22 28
/bundles/comparatorbase/fonts/LucidaGrande.woff 111 11697356 8 18
/bundles/comparatorbase/fonts/GoodTimesRg-Regular.woff 103 2364552 4 10
/app_dev.php/api/users/logins.json 76 748294 2 1
/bundles/comparatorbase/fonts/fontawesome-webfont.woff2 75 3009340 9 17
/api/users/check.json 60 1351 7 11
/event 44 424975 6 10
/bundles/comparatorbase/fonts/fontawesome-webfont.woff 40 2145240 1 7
/app_dev.php/api/events/creates.json 33 1843 0 0
/app_dev.php/api/events/searches.json 28 50812780 1 0
/api/users/logins.json 26 692 1 1
/bundles/comparatorbase/fonts/Lato-Bold.ttf 20 11398320 3 2
/event/new 20 219143 4 10
/grintaaa_notification/ 19 69759 2 2
/event/paintball/show 18 128594 7 2
/presentation 16 30817 0 8
/liked/count/50 15 15 1 1
/event/search 14 4104512 3 2
/app_dev.php/api/users/logout.json 13 221 1 0
/likem/count/173 12 12 0 0
/likem/count/200 12 12 0 0
/likem/count/174 12 12 0 0
/likem/count/198 12 12 0 0
/app_dev.php/api/events/yest/show.json 2 8946 1 0
/annuaires.php 4 3479 1 1
/grintaaa_friend/friends_list 3 9845 0 0
/register1 1 6566 0 1
/app_dev.php/api/events/bbsprt/show.json 3 130599 0 0
/app_dev.php/api/events/futsal/show.json 1 7957 0 0
/likem/count/219 1 1 0 0
/likem/count/218 1 1 0 0
/event/-7/confirmed 1 2331 0 0
/grintaaa_friend/ 4 11707 0 1
/liked/count/41 9 9 0 0
/resetting/check-email 1 2275 0 1
/connect/registration/1472319538 1 2634 0 0
/likem/count/210 4 4 0 0
/likem/count/125 3 3 0 0
/event/match-bascket-amical-entre-amis/show 1 7984 0 0
/multimedia/image 1 3703 0 0
/liked/count/13 1 1 0 0
/likem/count/126 3 3 0 1
/likem/count/204 5 5 0 0
/grintaaa_user/firas/230/show 2 8186 0 0
/event/competitions/developper 3 10514 1 1
/crack.php 3 2283 0 2
/event/basket/show 1 7017 0 0
/likem/count/212 4 4 0 0
/app_dev.php/api/events/paintball-3/show.json 1 4026 0 0
/personne_type/en 3 16130 0 0
/event/mur-a-gauche/show 1 7267 0 0
/liked/count/48 1 1 0 1
/app_dev.php/api/events/paintball-6/show.json 8 35823 1 0
/profile/fr/change-password 1 3906 0 0
/api/users/registers.json 6 230 0 0
/likem/count/165 1 1 0 0
/likem/count/213 4 4 0 0
/register2 1 6613 0 1
/event/-8/confirmed 1 2331 0 0
/grintaaa_user/developper/257/show 1 4017 1 0
/app_dev.php/api/events/mur-a-gauche/show.json 10 166531 1 2
/bundles/comparatorbase/fonts/fontawesome-webfont.ttf 9 1098828 0 2
/api/users/logout.json 3 51 0 0
/login 3 6257 1 1
/event/paintball-6/show 4 28164 0 0
/likem/count/208 3 3 0 0
/app_dev.php/api/events/google/show.json 1 5184 0 0
/liked/count/64 4 4 0 0
/multimedia/video 1 3798 0 0
/grintaaa_user/afef/264/show 2 8437 0 0
/register/fr/check-email 2 3686 0 1
/app_dev.php/api/events/96/dels/participes.json 1 20 0 0
/likem/count/131 3 3 0 0
/event/bbsport/show 1 2714 0 0
/event/paintball/confirmed 1 2335 1 0
/bundles/comparatorbase/fonts/LucidaGrande.eot 1 256534 0 0
/likem/count/167 1 1 0 0
/app_dev.php/api/events/paintball-4/show.json 1 4026 0 0
/bundles/comparatorbase/fonts/GoodTimesRg-Regular.ttf 11 755216 0 0
/profil 6 18914 0 0
/admin/sonata/user/user/list 3 23086 0 0
/liked/count/30 1 1 0 0
/profil/fr/edit-authentication 5 41282 0 1
/googlefbfd0e36035e44f5.html 1 53 1 1
/app_dev.php/api/events/test-3/show.json 1 7365 0 0
/bundles/comparatorbase/fonts/LucidaGrande.ttf 11 2819916 0 1
/3287.BIN_AUTOSSL_CHECK_PL__.HhfSGrWw_p8i3vC9.tmp 1 64 0 0
/event/tir/show 8 59694 1 2
/presentation/en 3 7568 0 2
/9616.BIN_AUTOSSL_CHECK_PL__.rR36bgt_s5LHLckg.tmp 1 64 0 1
/vote/add/230/1 1 88 0 0
/app_dev.php/api/events/basket/show.json 3 23781 1 1
/connect/registration/1472024485 1 2633 0 0
/connect/registration/1470966608 1 2627 0 0
/event/-2/show 1 6986 0 1
/app_dev.php/api/events/yoga/show.json 1 14102 0 0
/api/events/searches.json 9 20883302 0 2
/app_dev.php/api/events/test-1/show.json 1 2831 0 0
/app_dev.php/api/events/paintball-1/show.json 1 6451 0 0
/app_dev.php/api/events/-2/show.json 1 7934 0 0
/likem/count/120 1 1 0 0
/app_dev.php/api/events/paintball-7/show.json 1 11385 0 0
/Check.php 1 1172 0 1
/grintaaa_user/salim/64/show 2 8906 0 0
/9616.BIN_AUTOSSL_CHECK_PL__.mCdORUapiodOVsSy.tmp 1 64 1 0
/bundles/comparatorbase/fonts/glyphicons-halflings-regular.woff2 1 18028 0 1
/en 7 37301 2 1
/register 6 39877 1 1
/liked/count/25 1 1 0 0
/personne_type 10 50718 0 0
/grintaaa_user/Hpro/121/show 3 13083 0 1
/5900.BIN_AUTOSSL_CHECK_PL__.zXOdcFtdJiyWQkoT.tmp 1 64 0 0
/likem/count/199 12 12 0 2
/likem/count/214 4 4 0 0
/admin/login 4 7038 3 2
/app_dev.php/api/events/paintball-5/show.json 3 8248 0 0
/likem/count/216 2 2 0 0
/app_dev.php/api/events/testfinal/show.json 1 4092 0 0
/murs/ 10 6737 0 4
/connect/ 3 17085 2 1
/admin/dashboard 1 2087 0 0
/likem/count/209 4 4 0 0
/likem/count/29 2 2 0 0
/app_dev.php/api/events/paintball-2/show.json 1 4026 0 0
/likem/count/201 12 12 3 1
/bundles/comparatorbase/fonts/fontawesome-webfont.eot 1 60767 0 0
/liked/count/62 1 1 0 0
/liked/count/38 1 1 0 1
/app_dev.php/api/events/-9/show.json 1 6302 0 0
/fr/login_check 8 10504 2 1
/bundles/sonatacore/vendor/bootstrap/dist/fonts/glyphicons-halflings-regular.woff 1 23320 0 0
/user_file/new 2 9917 0 0
/event/-7/show 1 6988 0 1
/likem/count/153 1 1 0 0
/app_dev.php/api/events/-10/show.json 1 6303 0 0
/likem/count/220 1 1 0 0
/3287.BIN_AUTOSSL_CHECK_PL__.JQ8qaWrgoKQZU27i.tmp 1 64 1 0
/app_dev.php/api/events/undefined/show.json 4 744 0 2
/bundles/comparatorbase/fonts/Lato-Regular.ttf 11 7229332 0 5
/resetting/send-email 1 2419 0 1
/5900.BIN_AUTOSSL_CHECK_PL__.JlzGGiB4xTdrR_Ek.tmp 1 64 0 1
/likem/count/211 4 4 0 0
/app_dev.php/api/events/38/participes/true.json 1 20 0 0
/resetting/request 8 37764 2 2
/whm 12 106416 10 12
/app_dev.php/api/events/-11/show.json 1 8511 0 0
/app_dev.php/api/events/42/participes/true.json 1 20 0 0
/likem/count/203 5 5 0 0
/app_dev.php/api/events/test/show.json 2 31767 0 0
/app_dev.php/api/events/fdfdf/show.json 2 18194 0 1
/event/competitions/afef 3 11171 0 0
/bundles/comparatorbase/fonts/Lato-Regular.eot 1 657462 0 0
/grintaaa_friend/search 2 19710 0 0
/likem/count/134 1 1 0 0
/app_dev.php/api/events/53/participes/true.json 1 20 0 0
/likem/count/132 3 3 0 0
/liked/count/42 4 4 0 1
/app_dev.php 1 2625 0 0
/app_dev.php/api/users/registers.json 3 109 0 0
/event/bbsprt/show 4 29006 1 2
/likem/count/30 2 2 0 0
/event/paintball-5/show 1 6986 1 0
/app_dev.php/api/events/54/participes/true.json 1 20 0 0
/admin/core/set-object-field-value 1 796 0 1
/bundles/comparatorbase/fonts/GoodTimesRg-Regular.eot 1 68860 0 0
/bundles/sonatacore/vendor/components-font-awesome/fonts/fontawesome-webfont.woff 2 130904 0 1
/likem/count/148 1 1 0 0
/app_dev.php/api/events/test-4/show.json 1 10171 0 0
/likem/count/166 1 1 0 0
/app_dev.php/api/events/55/participes/true.json 1 20 0 0
END_SIDER
