AWSTATS DATA FILE 7.4 (build 20140726)
# If you remove this file, all statistics for date 201612 will be lost/reset.
# Last config file used to build this data file was /home/grintaaa/tmp/awstats/awstats.grintaaa.com.conf.

# Position (offset in bytes) in this file for beginning of each section for
# direct I/O access. If you made changes somewhere in this file, you should
# also remove completely the MAP section (AWStats will rewrite it at next
# update).
BEGIN_MAP 28
POS_GENERAL 2009                
POS_TIME 2688                
POS_VISITOR 12858               
POS_DAY 18654               
POS_DOMAIN 3567                
POS_LOGIN 4104                
POS_ROBOT 4259                
POS_WORMS 4838                
POS_EMAILSENDER 4969                
POS_EMAILRECEIVER 5112                
POS_SESSION 19505               
POS_SIDER 19712               
POS_FILETYPES 5247                
POS_DOWNLOADS 5568                
POS_OS 5616                
POS_BROWSER 5890                
POS_SCREENSIZE 6931                
POS_UNKNOWNREFERER 7005                
POS_UNKNOWNREFERERBROWSER 7781                
POS_ORIGIN 8401                
POS_SEREFERRALS 8545                
POS_PAGEREFS 8711                
POS_SEARCHWORDS 9223                
POS_KEYWORDS 9386                
POS_MISC 2351                
POS_ERRORS 9456                
POS_CLUSTER 3960                
POS_SIDER_404 9602                
END_MAP

# LastLine    = Date of last record processed - Last record line number in last log - Last record offset in last log - Last record signature value
# FirstTime   = Date of first visit for history file
# LastTime    = Date of last visit for history file
# LastUpdate  = Date of last update - Nb of parsed records - Nb of parsed old records - Nb of parsed new records - Nb of parsed corrupted - Nb of parsed dropped
# TotalVisits = Number of visits
# TotalUnique = Number of unique visitors
# MonthHostsKnown   = Number of hosts known
# MonthHostsUnKnown = Number of hosts unknown
BEGIN_GENERAL 8
LastLine 20170101010132 62 10653 9456744449636
FirstTime 20161201073217
LastTime 20161231173520
LastUpdate 20170101131625 62 0 61 0 0
TotalVisits 240                 
TotalUnique 136                 
MonthHostsKnown 0                   
MonthHostsUnknown 151                 
END_GENERAL

# Misc ID - Pages - Hits - Bandwidth
BEGIN_MISC 10
FlashSupport 0 0 0
AddToFavourites 0 31 0
PDFSupport 0 0 0
RealPlayerSupport 0 0 0
QuickTimeSupport 0 0 0
JavaEnabled 0 0 0
DirectorSupport 0 0 0
TotalMisc 0 0 0
JavascriptDisabled 0 0 0
WindowsMediaPlayerSupport 0 0 0
END_MISC

# Hour - Pages - Hits - Bandwidth - Not viewed Pages - Not viewed Hits - Not viewed Bandwidth
BEGIN_TIME 24
0 12 54 4593450 37 96 136485
1 28 303 13190807 26 111 370972
2 21 200 6824962 37 101 203722
3 16 194 8389765 59 145 225782
4 9 68 2273629 42 117 352364
5 17 76 2363100 244 273 752666
6 8 71 2270771 56 106 223735
7 15 133 4550462 30 117 210914
8 14 74 2290347 36 75 120435
9 12 71 2298550 26 98 414848
10 74 456 15329500 58 103 723355
11 55 456 24467565 91 170 359466
12 26 203 7348385 23 51 93148
13 34 337 15416452 52 141 242015
14 26 165 4661364 53 139 538376
15 68 365 15498797 51 163 578943
16 19 86 6434385 26 74 639178
17 26 238 10988465 47 112 171983
18 43 342 11697458 52 154 591014
19 32 375 12698680 37 107 284433
20 38 395 13613101 56 113 244164
21 17 135 4518560 43 181 563674
22 21 147 8713896 62 144 356021
23 62 255 6946128 22 68 157876
END_TIME

# Domain - Pages - Hits - Bandwidth
# The 25 first Pages must be first (order not required for others)
BEGIN_DOMAIN 22
us 279 2071 70763471
fr 225 1871 82529563
tn 49 340 9141116
es 49 361 20603815
ma 23 242 13288352
br 16 134 5603328
nl 9 9 94620
eu 8 8 627183
de 7 7 69752
za 5 67 2271643
sa 5 64 2250988
it 4 4 11058
ua 4 4 40066
be 3 6 44341
pt 1 1 2764
dz 1 1 2764
mx 1 1 2764
lt 1 1 12434
gb 1 1 1068
ca 1 1 12434
ru 1 1 2764
cn 0 4 2291
END_DOMAIN

# Cluster ID - Pages - Hits - Bandwidth
BEGIN_CLUSTER 0
END_CLUSTER

# Login - Pages - Hits - Bandwidth - Last visit
# The 10 first Pages must be first (order not required for others)
BEGIN_LOGIN 0
END_LOGIN

# Robot ID - Hits - Bandwidth - Last visit - Hits on robots.txt
# The 25 first Hits must be first (order not required for others)
BEGIN_ROBOT 12
googlebot 701 2006007 20161231223440 147
bot[\s_+:,\.\;\/\\-] 446 2206478 20161231163719 160
php 160 1101600 20161231212303 0
slurp 123 32994 20161231064836 12
spider 99 231182 20161231184935 23
robot 66 677714 20161230004419 16
no_user_agent 60 82362 20161227131653 1
unknown 35 3446 20161230065650 35
googlebot\-image 31 20655 20161228163403 0
crawl 24 42817 20161229130214 5
checker 12 22934 20161222080942 2
netcraft 7 62174 20161220034903 0
END_ROBOT

# Worm ID - Hits - Bandwidth - Last visit
# The 5 first Hits must be first (order not required for others)
BEGIN_WORMS 0
END_WORMS

# EMail - Hits - Bandwidth - Last visit
# The 20 first Hits must be first (order not required for others)
BEGIN_EMAILSENDER 0
END_EMAILSENDER

# EMail - Hits - Bandwidth - Last visit
# The 20 first hits must be first (order not required for others)
BEGIN_EMAILRECEIVER 0
END_EMAILRECEIVER

# Files type - Hits - Bandwidth - Bandwidth without compression - Bandwidth after compression
BEGIN_FILETYPES 13
html 286 923481 0 0
Unknown 94 518788 0 0
ttf 27 8525616 0 0
css 2086 4621537 0 0
js 862 12346839 0 0
eot 4 1043623 0 0
png 1047 42364513 0 0
gif 69 576368 0 0
woff2 41 2100860 0 0
jpg 436 99509829 0 0
jpeg 6 774537 0 0
json 1 16 0 0
woff 240 34072572 0 0
END_FILETYPES

# Downloads - Hits - Bandwidth
BEGIN_DOWNLOADS 0
END_DOWNLOADS

# OS ID - Hits
BEGIN_OS ID - Hits - Pages 15
macosx9 8 8
Unknown 241 62
winxp 12 12
macosx6 1 1
win7 899 169
ios_iphone 447 64
winlong 19 3
win8 2 2
winnt 499 66
blackberry 1 1
linux 1617 142
win2003 11 3
win8.1 11 11
linuxandroid 314 52
macosx 1117 97
END_OS

# Browser ID - Hits - Pages
BEGIN_BROWSER 52
chrome55.0.2883.91 7 7
firefox12.0 1 1
lg\- 1 1
firefox48.0 3 3
chrome27.0.1453 128 10
firefox5.0 1 1
safari 1472 115
chrome44.0.2403.133 73 7
firefox3.6.3 1 1
safari4.0 1 1
msie9.0 51 51
chrome54.0.2840.100 64 5
chrome49.0.2623.87 1 1
chrome27.0.1453.90 2 2
firefox29.0 8 8
chrome55.0.2883.87 152 31
opera36.0.2130.32 2 2
chrome51.0.2704.79 65 6
chrome53.0.2785.116 149 12
chrome49.0.2623.75 9 9
chrome54.5.2840.59 23 10
mozilla 1 1
safari9.0 133 13
iphone 313 50
chrome34.0.1847.137 1 1
firefox14.0.1 7 7
firefox49.0 1115 95
android 88 10
chrome47.0.2526.111 86 20
chrome33.0.0.0 1 1
chrome44.0.2403.89 2 2
Unknown 239 60
msie6.0 10 10
chrome54.0.2840.99 653 66
blackberry 1 1
chrome35.0.1916.153 1 1
safari5.1.7 1 1
firefox28.0 6 6
chrome54.0.2840.68 64 5
chrome10.0.649.0 1 1
msie10.0 2 2
chrome32.0.1700.107 3 3
lynx 1 1
firefox20.0 1 1
chrome36.0.1985.143 132 14
chrome54.0.2840.85 12 12
msie7.0 15 3
firefox11.0 1 1
chrome30.0.0.0 4 4
firefox2.0.0.11 1 1
msie8.0 14 2
msie11.0 76 14
END_BROWSER

# Screen size - Hits
BEGIN_SCREENSIZE 0
END_SCREENSIZE

# Unknown referer OS - Last visit date
BEGIN_UNKNOWNREFERER 12
ltx71_-_(http://ltx71.com/) 20161220150006
redback/v0-570-g26f8c96 20161221232238
Easy-Thumb_(https://www.easy-thumb.net/) 20161224035827
Python-urllib/2.7 20161209172428
HubSpot_Connect_2.0_(http://dev.hubspot.com/)_-_UrlBlacklistsKafkaWorkers-urlchecksworker 20161215101656
Lynx/2.8.5rel.1_libwww-FM/2.15FC_SSL-MM/1.4.1c_OpenSSL/0.9.7e-dev 20161229142306
Xenu_Link_Sleuth/1.3.8 20161227170257
WWW-Mechanize/1.73 20161203000347
Mozilla/5.0_(compatible;_Google-Site-Verification/1.0) 20161218092225
AppEngine-Google;_(_http://code.google.com/appengine;_appid:_s~snapchat-proxy) 20161213230717
python-requests/2.12.3 20161202003843
MagpieRSS/0.72_(_http://magpierss.sf.net) 20161222042218
END_UNKNOWNREFERER

# Unknown referer Browser - Last visit date
BEGIN_UNKNOWNREFERERBROWSER 10
WWW-Mechanize/1.73 20161203000347
python-requests/2.12.3 20161202003843
AppEngine-Google;_(_http://code.google.com/appengine;_appid:_s~snapchat-proxy) 20161213230717
MagpieRSS/0.72_(_http://magpierss.sf.net) 20161222042218
HubSpot_Connect_2.0_(http://dev.hubspot.com/)_-_UrlBlacklistsKafkaWorkers-urlchecksworker 20161215101656
Xenu_Link_Sleuth/1.3.8 20161227170257
Python-urllib/2.7 20161209172428
ltx71_-_(http://ltx71.com/) 20161220150006
redback/v0-570-g26f8c96 20161221232238
Easy-Thumb_(https://www.easy-thumb.net/) 20161224035827
END_UNKNOWNREFERERBROWSER

# Origin - Pages - Hits 
BEGIN_ORIGIN 6
From0 187 220
From1 1 1
From2 15 15
From3 95 107
From4 395 4856
From5 0 0
END_ORIGIN

# Search engine referers ID - Pages - Hits
BEGIN_SEREFERRALS 2
google 14 14
bing 1 1
END_SEREFERRALS

# External page referers - Pages - Hits
# The 25 first Pages must be first (order not required for others)
BEGIN_PAGEREFS 10
https://www.inboundlinks.win/InboundLinks/www.grintaaa.com 44 44
http://m.facebook.com 27 27
http://top10-way.com/try.php 9 9
http://www.domain2008.com/domains/www.grintaaa.com 6 6
https://www.facebook.com 3 3
http://1-free-share-buttons.com 2 2
https://www.linkedin.com 1 1
http://www.wholinktome.win 1 1
http://l.facebook.com/lsr.php 1 1
http://sucuri.net 1 13
END_PAGEREFS

# Search keyphrases - Number of search
# The 10 first number of search must be first (order not required for others)
BEGIN_SEARCHWORDS 1
grintaaa 2
END_SEARCHWORDS

# Search keywords - Number of search
# The 25 first number of search must be first (order not required for others)
BEGIN_KEYWORDS 1
grintaaa 2
END_KEYWORDS

# Errors - Hits - Bandwidth
BEGIN_ERRORS 5
206 50 632398
404 182 1128764
500 4 13131
302 57 44476
301 871 213087
END_ERRORS

# URL with 404 errors - Hits - Last URL referrer
BEGIN_SIDER_404 72
/wp-content/plugins/wp-cache.php 1 -
/16081.BIN_AUTOSSL_CHECK_PL__.gtlg23Oc.cpaneldcv 1 -
/3886.BIN_AUTOSSL_CHECK_PL__.bHuR2CZ0.cpaneldcv 1 -
/maill.php 1 -
/wordpress/ 2 -
/wp-login.php 6 -
/13585.BIN_AUTOSSL_CHECK_PL__.h7Wlc4ga.cpaneldcv 1 -
/7693.BIN_AUTOSSL_CHECK_PL__.QO3nOx2k.cpaneldcv 1 -
/inngitfejnpghwyq.html 1 -
/31090.BIN_AUTOSSL_CHECK_PL__.MSfhYuwr.cpaneldcv 1 -
/brstaejqr.html 1 -
/images/xxx.php 1 -
/wp-includes/class-comments.php 1 -
/nite/dropboxLanre/dropbox/proposal/index.php 1 -
/29126.BIN_AUTOSSL_CHECK_PL__.AG1UflmT.cpaneldcv 1 -
/register/fr/check-email 1 -
/17523.BIN_AUTOSSL_CHECK_PL__.Z91L4qMD.cpaneldcv 1 -
/20573.BIN_AUTOSSL_CHECK_PL__.nzTX6wa6.cpaneldcv 1 -
/.well-known/assetlinks.json 9 -
/29305.BIN_AUTOSSL_CHECK_PL__.hIquaFVQ.cpaneldcv 1 -
/590.BIN_AUTOSSL_CHECK_PL__._B6jws89.cpaneldcv 1 -
/wp-main.php 1 -
/bundles/comparatorbase/css/images/ui-bg_flat_75_ffffff_40x100.png 9 http://www.grintaaa.com/bundles/comparatorbase/css/jquery.ui.theme.css
/g 1 http://www.google.com/url
/404testpage4525d2fdc 1 http://sucuri.net
/200oktext/htmlOrganisation%20evenements%20sportifs%20en%20France32Apache00:00.422utf-8 2 -
/news.php 1 -
/m/ 3 -
/uploads/users/ 11 http://www.grintaaa.com/
/581.BIN_AUTOSSL_CHECK_PL__.5wKWC0D9.cpaneldcv 1 -
/404javascript.js 1 http://www.google.com/url/
/wordpress/wp-login.php 1 http://www.get.com/wordpress/wp-login.php/
/includes.php 1 -
/xmlrpc.php 2 -
/28010.BIN_AUTOSSL_CHECK_PL__.3q6rdyA5.cpaneldcv 1 -
/administrator/includes/readmy.php 1 -
/31177.BIN_AUTOSSL_CHECK_PL__.5MX1oPaO.cpaneldcv 1 -
/jtozduwf.html 1 -
/tmp.php 1 -
/1547.BIN_AUTOSSL_CHECK_PL__.AJFEdJ5X.cpaneldcv 1 -
/614.BIN_AUTOSSL_CHECK_PL__.vdEwB4ut.cpaneldcv 1 -
/ibxyhezgzyeq.html 1 -
/infos.php 1 -
/30317.BIN_AUTOSSL_CHECK_PL__.M69L5WVk.cpaneldcv 1 -
/bundles/sonatademo/css/demo.css 9 http://www.grintaaa.com/admin/comparator/event/category/list
/10693.BIN_AUTOSSL_CHECK_PL__.xUqG5ZHY.cpaneldcv 1 -
/wp-content/plugins/myshe.php 2 -
/31497.BIN_AUTOSSL_CHECK_PL__.3wf1mf_b.cpaneldcv 1 -
/20653.BIN_AUTOSSL_CHECK_PL__.OZQsEhs6.cpaneldcv 1 -
/images/google-assist.php 1 -
/wp-cache.php 1 -
/sqlibak.php 1 -
/8740.BIN_AUTOSSL_CHECK_PL__.WRGYp5Vn.cpaneldcv 1 -
/wp/ 2 -
/functions.php 1 -
/6/dropboxLanre/dropbox/proposal/index.php 5 -
/25208.BIN_AUTOSSL_CHECK_PL__.qbkZGFKW.cpaneldcv 1 -
/9138.BIN_AUTOSSL_CHECK_PL__.S1ITBZ9V.cpaneldcv 1 -
/18216.BIN_AUTOSSL_CHECK_PL__.kdNUW41F.cpaneldcv 1 -
/google68bae08d86e493be.html 1 -
/yurcerqehpdz.html 1 -
/license.php 1 -
/22595.BIN_AUTOSSL_CHECK_PL__.AkJHJUFu.cpaneldcv 1 -
/2220.BIN_AUTOSSL_CHECK_PL__.KpMuxlm4.cpaneldcv 1 -
/7423.BIN_AUTOSSL_CHECK_PL__.Z27hB7Ao.cpaneldcv 1 -
/6566.BIN_AUTOSSL_CHECK_PL__.oDMZNKNI.cpaneldcv 1 -
/configurationbak.php 2 -
/404.shtml 58 -
/wp/wp-login.php 1 http://45.79.81.203:65080/t.txt
/trackback/ 3 http://www.grintaaa.com/
/23428.BIN_AUTOSSL_CHECK_PL__.slZqb0SD.cpaneldcv 1 -
/27208.BIN_AUTOSSL_CHECK_PL__.noHJCYgb.cpaneldcv 1 -
END_SIDER_404

# Host - Pages - Hits - Bandwidth - Last visit date - [Start date of last visit] - [Last page of last visit]
# [Start date of last visit] and [Last page of last visit] are saved only if session is not finished
# The 25 first Hits must be first (order not required for others)
BEGIN_VISITOR 151
192.0.112.114 110 1408 49845752 20161231020015
89.88.183.168 70 764 31673046 20161215202727
158.42.240.52 38 225 11961032 20161216102011
212.129.51.228 37 169 4629660 20161213230730
41.226.68.47 32 204 6125641 20161213154224
199.193.251.133 24 24 0 20161231173520
54.170.225.89 15 192 8380116 20161224035827
193.51.191.241 15 223 10607895 20161209183801
192.157.254.197 13 13 0 20161230231124
81.202.203.229 11 136 8642783 20161212170024
176.160.61.224 10 128 4501976 20161230130827
41.224.101.224 10 23 505934 20161223104700
105.157.105.24 9 107 6391807 20161228012340
217.77.224.130 9 75 6403513 20161212155259
46.235.158.196 8 8 627183 20161212155259
69.58.178.57 8 8 82186 20161220054359
80.82.65.82 8 8 82186 20161212072400
54.162.255.254 7 7 78040 20161214183450
107.178.194.93 7 7 19348 20161213230717
5.9.106.81 7 7 69752 20161226151957
80.215.173.207 7 73 6394559 20161220220821
81.65.171.80 7 69 6891212 20161211110533
104.238.217.130 6 65 2253752 20161204113932
80.214.77.115 5 64 2265716 20161201203047
189.91.72.225 5 64 2793372 20161222123106
82.238.214.120 1 1 0 20161203225835
66.102.9.62 1 1 2764 20161216193859
41.92.18.108 0 1 6885 
80.12.59.90 1 1 2764 20161210222736
107.150.39.10 1 1 2764 20161226190116
193.95.99.233 1 1 0 20161206150719
92.156.247.84 1 1 2764 20161213180241
109.86.71.234 1 1 12434 20161217112059
201.0.154.205 1 1 2764 20161201113217
204.85.191.30 1 1 12434 20161228125638
188.141.226.186 1 1 2764 20161225164507
189.55.58.114 5 64 2793372 20161219185755
66.220.145.243 2 20 453929 20161212010438
66.249.93.138 4 4 11056 20161219125709
195.154.167.219 1 1 2764 20161213023308
86.222.77.245 5 64 2250988 20161204132201
23.88.113.56 3 3 0 20161220154702
92.133.75.181 1 1 2764 20161217003931
213.229.108.216 1 1 1068 20161222070846
92.144.212.191 1 1 0 20161201133259
83.200.198.220 1 1 2764 20161227124920
201.145.92.25 1 1 2764 20161230200649
179.127.68.130 1 1 2764 20161223183739
54.226.124.27 1 1 12434 20161214180949
173.255.233.124 5 17 181568 20161213104920
66.249.88.38 0 32 795768 
195.154.102.49 4 4 10298 20161224090424
54.205.175.165 5 64 2793372 20161212112517
38.100.21.69 3 11 112878 20161204185726
83.204.9.181 1 1 0 20161219144136
109.236.8.8 4 4 11058 20161221232238
192.154.111.26 1 1 2764 20161207005836
41.224.162.175 1 48 258553 20161212194934
54.214.183.205 1 1 2764 20161216200900
170.231.166.42 1 1 2764 20161225170513
86.242.169.23 1 1 2764 20161210131428
90.6.13.139 1 1 2764 20161219160137
23.88.228.190 1 1 12434 20161203203227
80.82.78.92 1 1 12434 20161216163845
37.160.47.144 0 1 6885 
41.230.44.114 5 64 2250988 20161201112200
77.151.38.128 5 64 2265716 20161218141411
109.12.253.29 1 1 2764 20161219211257
66.220.145.246 3 24 925622 20161212010438
188.165.29.82 1 1 2764 20161210111908
186.219.179.190 1 1 2764 20161221194900
66.220.145.245 0 9 665513 
83.205.164.12 1 1 2764 20161213172022
160.173.151.157 5 64 2265716 20161230112537
172.98.200.219 1 1 12434 20161212050041
105.149.43.175 5 24 55354 20161230142857
87.109.236.186 5 64 2250988 20161211131216
191.179.26.205 1 1 2764 20161215002202
52.3.127.144 3 5 10142 20161220150006
77.152.186.94 1 1 2764 20161207212055
23.88.228.88 5 5 62170 20161226225722
149.202.127.215 1 1 2764 20161203120537
94.23.75.242 1 1 2764 20161226130710
77.197.207.132 1 1 0 20161211192053
66.249.93.142 3 3 8292 20161215192524
93.23.150.109 1 1 2764 20161223003255
218.30.103.113 0 4 2291 
77.154.224.201 5 64 2250988 20161208215213
77.84.40.151 1 1 2764 20161210174907
107.178.195.155 3 3 8292 20161208174929
54.154.121.54 1 1 2764 20161202003843
87.67.78.56 0 1 6885 
109.17.71.91 1 1 2764 20161212161802
90.60.37.139 1 1 2764 20161216233517
167.114.228.206 1 1 12434 20161214081459
93.95.103.45 1 1 2764 20161230052751
37.187.158.39 2 2 5528 20161220072708
78.158.11.226 1 1 12434 20161229142306
54.174.61.37 1 1 0 20161215101656
107.178.195.153 2 2 5528 20161207120618
35.165.134.1 1 1 2764 20161203000347
86.233.155.193 1 1 2764 20161204183600
46.254.229.40 1 1 0 20161209101344
78.231.32.114 0 1 6885 
86.238.97.100 1 1 2764 20161220234514
54.81.109.191 1 1 12434 20161228141556
82.154.172.100 1 1 2764 20161214231539
105.151.124.224 0 1 6885 
186.249.251.76 1 1 2764 20161227104721
23.88.103.223 5 5 0 20161229122444
177.195.65.181 1 1 2764 20161229205714
66.249.92.158 1 1 53 20161218092225
213.251.182.114 2 2 5528 20161222042218
78.249.109.27 1 1 2764 20161203152046
89.80.27.59 2 2 5528 20161217225441
40.85.97.248 2 2 0 20161227170257
92.151.28.243 1 1 2764 20161205214739
188.163.73.38 1 1 2764 20161202064143
105.67.128.111 1 1 16 20161218145436
107.178.194.91 3 3 8292 20161213140035
85.117.144.251 1 1 2764 20161225181339
23.22.101.38 1 1 2764 20161209172428
90.78.124.6 1 1 2764 20161213173155
90.28.42.48 1 1 2764 20161221161041
41.140.41.75 3 42 4547919 20161204000907
192.187.100.138 1 1 2764 20161224162926
77.154.225.4 0 1 6885 
89.159.14.11 1 1 2764 20161210091740
107.178.194.89 4 4 11056 20161213230716
178.137.83.166 2 2 24868 20161224094017
54.187.182.18 1 1 2764 20161214101737
66.249.88.40 5 50 1329082 20161205070451
197.253.210.151 0 1 6885 
107.178.195.157 5 5 13820 20161208165222
62.210.99.75 1 1 2764 20161231135712
105.106.10.93 1 1 2764 20161227212649
196.179.251.70 5 64 2250988 20161205123121
66.249.93.134 1 1 2764 20161201131457
66.220.145.244 0 11 205924 
217.77.225.129 1 1 1843 20161212155351
188.165.28.233 1 1 2764 20161219160924
87.67.20.131 2 4 34908 20161205201245
196.69.172.151 0 3 20655 
45.219.139.194 0 1 6885 
90.17.214.92 1 1 2764 20161204165345
88.177.231.146 0 1 6885 
208.110.64.154 1 1 2764 20161209215658
109.140.239.65 1 1 2548 20161206084719
66.249.88.36 5 46 2406582 20161205070451
80.12.55.217 5 64 2250988 20161211221239
37.160.12.201 0 1 6885 
END_VISITOR

# Date - Pages - Hits - Bandwidth - Visits
BEGIN_DAY 31
20161201 24 291 12879139 8
20161202 15 133 4524996 7
20161203 10 69 2286442 6
20161204 19 184 9171065 6
20161205 24 266 9088099 7
20161206 70 706 29451747 8
20161207 16 78 2326445 12
20161208 14 133 4529117 6
20161209 19 137 4575404 8
20161210 6 7 16225 6
20161211 45 415 18295719 11
20161212 58 417 21040342 17
20161213 69 319 8668108 17
20161214 24 149 8769870 8
20161215 10 69 2256516 6
20161216 43 223 7862433 9
20161217 10 69 2286442 6
20161218 14 132 4534265 6
20161219 12 71 2804428 8
20161220 27 152 8762808 9
20161221 15 74 2294736 8
20161222 10 69 2797204 6
20161223 19 91 2789612 6
20161224 27 263 10671328 7
20161225 11 70 2274008 7
20161226 13 13 87714 7
20161227 10 69 2274008 6
20161228 18 175 8682391 6
20161229 10 69 2280914 6
20161230 24 220 6828574 7
20161231 7 66 2268480 3
END_DAY

# Session range - Number of visits
BEGIN_SESSION 7
30mn-1h 2
15mn-30mn 3
1h+ 1
2mn-5mn 6
5mn-15mn 7
0s-30s 220
30s-2mn 1
END_SESSION

# URL - Pages - Bandwidth - Entry - Exit
# The 25 first Pages must be first (order not required for others)
BEGIN_SIDER 57
/ 270 875526 225 160
/bundles/comparatorbase/fonts/GoodTimesRg-Regular.woff 71 1926672 1 1
/bundles/comparatorbase/fonts/Lato-Regular.woff 70 21106764 0 21
/bundles/comparatorbase/fonts/LucidaGrande.woff 69 9019648 0 18
/bundles/comparatorbase/fonts/fontawesome-webfont.woff2 41 2100860 0 6
/bundles/comparatorbase/fonts/fontawesome-webfont.woff 28 1930716 1 4
/presentation 15 41931 0 8
/personne_type 9 75135 0 0
/grintaaa_notification/ 8 29207 0 1
/resetting/request 8 56448 3 4
/presentation/en 7 18068 1 2
/en 7 55288 1 1
/bundles/comparatorbase/fonts/Lato-Regular.ttf 6 3943272 0 0
/bundles/comparatorbase/fonts/GoodTimesRg-Regular.ttf 6 411936 0 0
/bundles/comparatorbase/fonts/LucidaGrande.ttf 6 1538136 0 3
/bundles/comparatorbase/fonts/fontawesome-webfont.ttf 6 732552 0 1
/register 4 55925 0 2
/admin/sonata/user/user/list 4 33152 0 0
/connect/ 3 7662 2 1
/event 3 30155 0 0
/personne_type/en 3 33990 1 1
/bundles/comparatorbase/fonts/Lato-Bold.ttf 3 1899720 0 0
/register/fr/check-email 2 3686 1 1
/profil 2 6287 0 0
/likem/count/173 2 2 0 0
/googlefbfd0e36035e44f5.html 1 53 1 1
/admin/comparator/event/category/list 1 8850 0 1
/app_dev.php/api/users/check.json 1 16 1 1
/bundles/comparatorbase/fonts/LucidaGrande.eot 1 256534 0 0
/grintaaa_configuration_notification_email/ 1 3962 0 0
/register/fr/confirmed 1 2649 0 0
/grintaaa_user/Slimou/221/show 1 4366 0 0
/bundles/comparatorbase/fonts/Lato-Regular.eot 1 657462 0 0
/event/tir/show 1 7932 0 0
/event/competitions/Anne%20Marie%20Blanc 1 3376 0 0
/bundles/sonatacore/vendor/bootstrap/dist/fonts/glyphicons-halflings-regular.woff 1 23320 0 0
/grintaaa_user/ines/259/show 1 4487 0 0
/liked/count/41 1 1 0 0
/connect/registration/1481879342 1 2632 0 0
/admin/dashboard 1 2087 0 0
/grintaaa_user/developper/257/show 1 4676 0 0
/likem/count/201 2 2 0 0
/likem/count/174 2 2 0 0
/likem/count/171 2 2 0 0
/event/new 2 21926 0 0
/profil/fr/edit-authentication 1 8189 0 0
/grintaaa_friend/ 2 5692 0 0
/bundles/comparatorbase/fonts/GoodTimesRg-Regular.eot 1 68860 0 0
/admin/login 2 2133 2 1
/likem/count/239 2 2 0 1
/grintaaa_friend/search 2 20378 0 0
/admin/sonata/user/user/109/edit 1 7744 0 0
/bundles/sonatacore/vendor/components-font-awesome/fonts/fontawesome-webfont.woff 1 65452 0 0
/bundles/comparatorbase/fonts/fontawesome-webfont.eot 1 60767 0 0
/user_file/new 1 4943 0 0
/connect/registration/1481019892 1 2344 0 0
/uploads/users/57d1bab462fbd.html 1 1379 0 0
END_SIDER
