AWSTATS DATA FILE 7.4 (build 20140726)
# If you remove this file, all statistics for date 201702 will be lost/reset.
# Last config file used to build this data file was /home/grintaaa/tmp/awstats/ssl/awstats.grintaaa.com.conf.

# Position (offset in bytes) in this file for beginning of each section for
# direct I/O access. If you made changes somewhere in this file, you should
# also remove completely the MAP section (AWStats will rewrite it at next
# update).
BEGIN_MAP 28
POS_GENERAL 2013                
POS_TIME 2677                
POS_VISITOR 9483                
POS_DAY 9972                
POS_DOMAIN 3308                
POS_LOGIN 3563                
POS_ROBOT 3718                
POS_WORMS 3921                
POS_EMAILSENDER 4052                
POS_EMAILRECEIVER 4195                
POS_SESSION 10172               
POS_SIDER 10355               
POS_FILETYPES 4330                
POS_DOWNLOADS 4604                
POS_OS 4652                
POS_BROWSER 4756                
POS_SCREENSIZE 4871                
POS_UNKNOWNREFERER 4945                
POS_UNKNOWNREFERERBROWSER 5107                
POS_ORIGIN 5264                
POS_SEREFERRALS 5399                
POS_PAGEREFS 5543                
POS_SEARCHWORDS 5691                
POS_KEYWORDS 5843                
POS_MISC 2341                
POS_ERRORS 5902                
POS_CLUSTER 3419                
POS_SIDER_404 6019                
END_MAP

# LastLine    = Date of last record processed - Last record line number in last log - Last record offset in last log - Last record signature value
# FirstTime   = Date of first visit for history file
# LastTime    = Date of last visit for history file
# LastUpdate  = Date of last update - Nb of parsed records - Nb of parsed old records - Nb of parsed new records - Nb of parsed corrupted - Nb of parsed dropped
# TotalVisits = Number of visits
# TotalUnique = Number of unique visitors
# MonthHostsKnown   = Number of hosts known
# MonthHostsUnKnown = Number of hosts unknown
BEGIN_GENERAL 8
LastLine 20170212130410 13 1317 3041795196661
FirstTime 0
LastTime 20170211023100
LastUpdate 20170212131522 13 0 13 0 0
TotalVisits 12                  
TotalUnique 10                  
MonthHostsKnown 0                   
MonthHostsUnknown 10                  
END_GENERAL

# Misc ID - Pages - Hits - Bandwidth
BEGIN_MISC 10
RealPlayerSupport 0 0 0
AddToFavourites 0 6 0
QuickTimeSupport 0 0 0
WindowsMediaPlayerSupport 0 0 0
DirectorSupport 0 0 0
JavascriptDisabled 0 0 0
TotalMisc 0 0 0
FlashSupport 0 0 0
PDFSupport 0 0 0
JavaEnabled 0 0 0
END_MISC

# Hour - Pages - Hits - Bandwidth - Not viewed Pages - Not viewed Hits - Not viewed Bandwidth
BEGIN_TIME 24
0 0 0 0 1 2 6418
1 0 0 0 2 3 234
2 14 126 4781747 8 19 108852
3 0 0 0 0 0 0
4 0 0 0 1 1 229
5 0 0 0 3 3 697
6 0 0 0 1 1 229
7 0 0 0 18 18 4122
8 0 0 0 7 7 1608
9 0 0 0 1 1 234
10 0 0 0 6 6 1374
11 1 1 2766 5 5 1153
12 19 19 26413 14 16 17586
13 2 2 2838 8 8 13736
14 31 107 6792087 10 56 249160
15 13 72 2272743 8 9 32536
16 27 155 3199235 183 196 1220081
17 36 124 4475598 371 412 2584821
18 0 0 0 2 4 6652
19 0 0 0 0 0 0
20 4 11 4149765 2 2 471
21 6 65 2253756 7 10 27348
22 0 0 0 0 0 0
23 0 0 0 0 0 0
END_TIME

# Domain - Pages - Hits - Bandwidth
# The 25 first Pages must be first (order not required for others)
BEGIN_DOMAIN 3
ma 150 679 27948638
us 2 2 5544
it 1 1 2766
END_DOMAIN

# Cluster ID - Pages - Hits - Bandwidth
BEGIN_CLUSTER 0
END_CLUSTER

# Login - Pages - Hits - Bandwidth - Last visit
# The 10 first Pages must be first (order not required for others)
BEGIN_LOGIN 0
END_LOGIN

# Robot ID - Hits - Bandwidth - Last visit - Hits on robots.txt
# The 25 first Hits must be first (order not required for others)
BEGIN_ROBOT 2
googlebot 46 230932 20170211210945 6
netcraft 2 24870 20170211131714 0
END_ROBOT

# Worm ID - Hits - Bandwidth - Last visit
# The 5 first Hits must be first (order not required for others)
BEGIN_WORMS 0
END_WORMS

# EMail - Hits - Bandwidth - Last visit
# The 20 first Hits must be first (order not required for others)
BEGIN_EMAILSENDER 0
END_EMAILSENDER

# EMail - Hits - Bandwidth - Last visit
# The 20 first hits must be first (order not required for others)
BEGIN_EMAILRECEIVER 0
END_EMAILRECEIVER

# Files type - Hits - Bandwidth - Bandwidth without compression - Bandwidth after compression
BEGIN_FILETYPES 11
js 120 1847016 0 0
jpg 48 11268056 0 0
html 42 108561 0 0
Unknown 39 208723 0 0
ttf 4 1451736 0 0
png 112 8650122 0 0
woff2 9 340680 0 0
css 240 597610 0 0
woff 29 3365940 0 0
gif 9 76284 0 0
php 30 42220 0 0
END_FILETYPES

# Downloads - Hits - Bandwidth
BEGIN_DOWNLOADS 0
END_DOWNLOADS

# OS ID - Hits
BEGIN_OS ID - Hits - Pages 3
macosx 126 14
Unknown 3 3
win7 553 136
END_OS

# Browser ID - Hits - Pages
BEGIN_BROWSER 3
chrome55.0.2883.87 553 136
chrome55.0.2883.95 126 14
Unknown 3 3
END_BROWSER

# Screen size - Hits
BEGIN_SCREENSIZE 0
END_SCREENSIZE

# Unknown referer OS - Last visit date
BEGIN_UNKNOWNREFERER 2
redback/v0-570-g26f8c96 20170205115546
Mediapartners-Google 20170210122727
END_UNKNOWNREFERER

# Unknown referer Browser - Last visit date
BEGIN_UNKNOWNREFERERBROWSER 2
Mediapartners-Google 20170210122727
redback/v0-570-g26f8c96 20170205115546
END_UNKNOWNREFERERBROWSER

# Origin - Pages - Hits 
BEGIN_ORIGIN 6
From0 55 55
From1 0 0
From2 0 0
From3 0 0
From4 98 627
From5 0 0
END_ORIGIN

# Search engine referers ID - Pages - Hits
BEGIN_SEREFERRALS 0
END_SEREFERRALS

# External page referers - Pages - Hits
# The 25 first Pages must be first (order not required for others)
BEGIN_PAGEREFS 0
END_PAGEREFS

# Search keyphrases - Number of search
# The 10 first number of search must be first (order not required for others)
BEGIN_SEARCHWORDS 0
END_SEARCHWORDS

# Search keywords - Number of search
# The 25 first number of search must be first (order not required for others)
BEGIN_KEYWORDS 0
END_KEYWORDS

# Errors - Hits - Bandwidth
BEGIN_ERRORS 3
404 632 3992976
301 79 17627
302 14 4236
END_ERRORS

# URL with 404 errors - Hits - Last URL referrer
BEGIN_SIDER_404 31
/grintaaa/Accueil_%20Reseau%20social%20sport%20-%20Grintaaa_files/lib.js.t%C3%A9l%C3%A9chargement 36 https://www.grintaaa.com/grintaaa/index.html
/grintaaa/Accueil_%20Reseau%20social%20sport%20-%20Grintaaa_files/jquery.ui.theme.css 31 https://www.grintaaa.com/grintaaa/index.html
/grintaaa/Accueil_%20Reseau%20social%20sport%20-%20Grintaaa_files/rating.js.t%C3%A9l%C3%A9chargement 36 https://www.grintaaa.com/grintaaa/index.html
/.well-known/assetlinks.json 4 -
/bundles/comparatorbase/js/lightbox.min.map 22 -
/news 1 -
/grintaaa/Accueil_%20Reseau%20social%20sport%20-%20Grintaaa_files/GoodTimesRg-Regular.woff 7 https://www.grintaaa.com/grintaaa/Accueil_%20Reseau%20social%20sport%20-%20Grintaaa_files/styles.css
/grintaaa/Accueil_%20Reseau%20social%20sport%20-%20Grintaaa_files/jquery.ui.addresspicker.js.t%C3%A9l%C3%A9chargement 36 https://www.grintaaa.com/grintaaa/index.html
/grintaaa/aadmin.html 1 -
/bundles/sonatademo/css/demo.css 1 https://www.grintaaa.com/admin/login
/grintaaa/Accueil_%20Reseau%20social%20sport%20-%20Grintaaa_files/jquery-migrate-1.2.1.min.js.t%C3%A9l%C3%A9chargement 38 https://www.grintaaa.com/grintaaa/index.html
/grintaaa/Accueil_%20Reseau%20social%20sport%20-%20Grintaaa_files/jquery-2.2.0.min.js.t%C3%A9l%C3%A9chargement 36 https://www.grintaaa.com/grintaaa/index.html
/grintaaa/admin.ph%5Ep 1 -
/grintaaa/Accueil_%20Reseau%20social%20sport%20-%20Grintaaa_files/npm.js.t%C3%A9l%C3%A9chargement 37 https://www.grintaaa.com/grintaaa/index.html
/login 2 -
/grintaaa/Accueil_%20Reseau%20social%20sport%20-%20Grintaaa_files/Lato-Regular.woff 27 https://www.grintaaa.com/grintaaa/Accueil_%20Reseau%20social%20sport%20-%20Grintaaa_files/styles.css
/grintaaa/Accueil_%20Reseau%20social%20sport%20-%20Grintaaa_files/jquery.ui.base.css 31 https://www.grintaaa.com/grintaaa/index.html
/wp-admin.php 2 -
/grintaaa/Accueil_%20Reseau%20social%20sport%20-%20Grintaaa_files/select2.min.js.t%C3%A9l%C3%A9chargement 36 https://www.grintaaa.com/grintaaa/index.html
/grintaaa/Accueil_%20Reseau%20social%20sport%20-%20Grintaaa_files/jquery.validate.js.t%C3%A9l%C3%A9chargement 37 https://www.grintaaa.com/grintaaa/index.html
/grintaaa/Accueil_%20Reseau%20social%20sport%20-%20Grintaaa_files/jquery-ui.js.t%C3%A9l%C3%A9chargement 38 https://www.grintaaa.com/grintaaa/index.html
/grintaaa/Accueil_%20Reseau%20social%20sport%20-%20Grintaaa_files/bootstrap.min.js.t%C3%A9l%C3%A9chargement 39 -
/grintaaa/ 1 -
/grintaaa/Accueil_%20Reseau%20social%20sport%20-%20Grintaaa_files/lightbox.min.map 1 -
/wp-admin 1 -
/images/filtre.png 1 -
/grintaaa/Accueil_%20Reseau%20social%20sport%20-%20Grintaaa_files/modernizr.custom.86080.js.t%C3%A9l%C3%A9chargement 38 https://www.grintaaa.com/grintaaa/index.html
/loginuser 1 -
/grintaaa/Accueil_%20Reseau%20social%20sport%20-%20Grintaaa_files/lightbox.min.js.t%C3%A9l%C3%A9chargement 37 https://www.grintaaa.com/grintaaa/index.html
/grintaaa/Accueil_%20Reseau%20social%20sport%20-%20Grintaaa_files/ca-pub-3318666783044944.js.t%C3%A9l%C3%A9chargement 33 -
/grintaaa/Accueil_%20Reseau%20social%20sport%20-%20Grintaaa_files/analytics.js.t%C3%A9l%C3%A9chargement 20 https://www.grintaaa.com/grintaaa/index.html
END_SIDER_404

# Host - Pages - Hits - Bandwidth - Last visit date - [Start date of last visit] - [Last page of last visit]
# [Start date of last visit] and [Last page of last visit] are saved only if session is not finished
# The 25 first Hits must be first (order not required for others)
BEGIN_VISITOR 10
41.249.93.105 44 231 7168173 20170208170908
41.140.4.241 36 134 3144770 20170210172116
41.248.120.170 21 87 6421176 20170207153111
105.156.209.222 20 20 26485 20170210135942
196.217.27.155 14 126 4781747 20170211023100
105.156.216.119 10 76 6403521 20170208210233
105.156.192.219 5 5 2766 20170209174304
72.14.199.145 1 1 2766 20170210122727
109.236.8.8 1 1 2766 20170205115546
66.249.90.205 1 1 2778 20170207143050
END_VISITOR

# Date - Pages - Hits - Bandwidth - Visits
BEGIN_DAY 6
20170205 1 1 2766 1
20170207 22 88 6423954 3
20170208 54 307 13571694 3
20170209 5 5 2766 1
20170210 57 155 3174021 3
20170211 14 126 4781747 1
END_DAY

# Session range - Number of visits
BEGIN_SESSION 5
5mn-15mn 1
30mn-1h 3
0s-30s 4
30s-2mn 2
1h+ 2
END_SESSION

# URL - Pages - Bandwidth - Entry - Exit
# The 25 first Pages must be first (order not required for others)
BEGIN_SIDER 19
/ 36 99576 9 5
/blog/archive 23 32637 0 1
/grintaaa/admin.php 20 40748 0 2
/bundles/comparatorbase/fonts/Lato-Regular.woff 11 2345196 0 0
/grintaaa/process.php 10 1472 0 0
/bundles/comparatorbase/fonts/LucidaGrande.woff 9 845592 0 0
/bundles/comparatorbase/fonts/GoodTimesRg-Regular.woff 9 175152 0 0
/bundles/comparatorbase/fonts/fontawesome-webfont.woff2 9 340680 0 3
/hello/nassim 5 5955 0 0
/grintaaa/ 5 7798 1 0
/presentation 3 3477 1 0
/personne_type 2 4782 0 0
/grintaaa/Accueil_%20Reseau%20social%20sport%20-%20Grintaaa_files/GoodTimesRg-Regular.ttf 2 137312 0 0
/grintaaa/Accueil_%20Reseau%20social%20sport%20-%20Grintaaa_files/js 2 148684 0 0
/grintaaa/Accueil_%20Reseau%20social%20sport%20-%20Grintaaa_files/Lato-Regular.ttf 2 1314424 0 0
/en 2 5556 1 1
/admin/login 1 1065 0 0
/register 1 6567 0 0
/media/gallery/ 1 1187 0 0
END_SIDER
